<?xml version="1.0" encoding="utf-8"?>
<!-- Generator: Adobe Illustrator 24.3.0, SVG Export Plug-In . SVG Version: 6.00 Build 0)  -->
<svg version="1.1" id="Layer_1" xmlns="http://www.w3.org/2000/svg" xmlns:xlink="http://www.w3.org/1999/xlink" x="0px" y="0px"
	 viewBox="0 0 75 75" style="enable-background:new 0 0 75 75;" xml:space="preserve">
<style type="text/css">
	.st0{fill:#FFFFFF;}
</style>
<path class="st0" d="M10.4,14l-0.7,0.8c-0.1,0.2-0.4,0.2-0.5,0.1c-0.4-0.3-0.7-0.5-0.9-0.7l-2.8,3.1l2.7,2.4l3-3.2l1.4,1.3l-3,3.3
	l2.7,2.5l2.8-3.1l-0.8-0.9c-0.1-0.2-0.1-0.4,0-0.5l0.7-0.8l2.5,2.3l-6.5,7l-0.8-0.7c-0.2-0.2-0.3-0.5-0.1-0.7l0.1-0.1
	c0,0,0.1-0.1,0.1-0.1l0.1-0.1l0.3-0.5L3.7,19l-0.4,0.3l-0.1,0.1L3,19.5l0,0c-0.2,0.2-0.5,0.2-0.7,0l-0.8-0.7l6.5-7L10.4,14z"/>
<path class="st0" d="M24.6,16.5l-6.4,3.7l-0.5-0.8c-0.1-0.1-0.1-0.2-0.1-0.4c0-0.1,0-0.3,0-0.5l0.9-7.3L16,12.8
	c0.2,0.4,0.3,0.7,0.4,0.8c0.1,0.2,0,0.4-0.2,0.5l-0.9,0.5L13.8,12l6.1-3.5l0.5,0.8c0.1,0.1,0.1,0.3,0.2,0.4c0,0.1,0,0.3,0,0.4
	l-0.9,7.2l2.8-1.6L22,14.9c-0.1-0.2,0-0.4,0.2-0.5l0.9-0.5L24.6,16.5z"/>
<path class="st0" d="M32.5,14.3l-7.1,1.8l-0.2-0.9c0-0.1,0-0.2,0-0.4c0-0.2,0.1-0.3,0.1-0.4L28,7.7l-2.8,0.7
	c0.1,0.5,0.1,0.8,0.1,0.9c0,0.2-0.1,0.4-0.3,0.4L24,10l-0.7-2.8l6.8-1.7l0.2,0.9c0,0.1,0,0.3,0,0.4c0,0.1-0.1,0.3-0.1,0.4l-2.8,6.7
	l3.1-0.8l-0.1-1c0-0.2,0.1-0.4,0.3-0.4l1-0.3L32.5,14.3z"/>
<path class="st0" d="M38.3,13.2v1.1l-5,0.1v-1.1c0-0.3,0.2-0.5,0.4-0.6h0.1l0.3-0.1l0.5-0.1l-0.1-5.7l-0.5-0.1h-0.2h-0.1h-0.1
	c-0.3,0-0.5-0.3-0.5-0.6V5.1l3.6-0.1l0.2,7.5l0.5,0.1h0.2h0.1h0.1C38.2,12.7,38.4,12.9,38.3,13.2z M37,2.9c-0.1,0.2-0.2,0.3-0.3,0.5
	c-0.1,0.1-0.3,0.2-0.5,0.3c-0.2,0.1-0.4,0.1-0.5,0.1c-0.2,0-0.4,0-0.6-0.1c-0.2-0.1-0.3-0.2-0.4-0.3c-0.1-0.1-0.2-0.2-0.3-0.4
	c-0.1-0.2-0.1-0.3-0.1-0.5c0-0.2,0-0.4,0.1-0.6c0.1-0.2,0.2-0.3,0.3-0.5c0.1-0.1,0.3-0.2,0.4-0.3C35.3,1.1,35.5,1,35.7,1
	c0.2,0,0.4,0,0.6,0.1c0.2,0.1,0.3,0.2,0.5,0.3c0.1,0.1,0.2,0.3,0.3,0.4c0.1,0.2,0.1,0.4,0.1,0.6C37.1,2.6,37.1,2.7,37,2.9z"/>
<path class="st0" d="M49.8,12c-0.2,0.6-0.4,1.2-0.8,1.8c-0.3,0.5-0.7,0.9-1.2,1.2c-0.4,0.3-0.9,0.6-1.5,0.7
	c-0.6,0.1-1.1,0.1-1.7-0.1c-1.5-0.4-2.9-0.9-4.2-1.6l2.8-10.8l-0.5-0.2c-0.1,0-0.1,0-0.2-0.1l-0.1,0h-0.1c-0.3-0.1-0.4-0.4-0.3-0.7
	l0.3-1L45.9,2l-1.3,5.1C45,6.8,45.5,6.6,46,6.5c0.5-0.1,1.1-0.1,1.7,0.1c0.5,0.1,1,0.3,1.3,0.6c0.4,0.3,0.6,0.7,0.8,1.1
	c0.2,0.5,0.3,1.1,0.3,1.6C50.1,10.6,50,11.3,49.8,12z M47.6,11.4c0.1-0.5,0.2-0.9,0.2-1.4c0-0.3,0-0.7-0.1-1
	c-0.1-0.2-0.2-0.5-0.5-0.6C47,8.2,46.8,8.1,46.5,8c-0.4-0.1-0.8-0.1-1.2,0c-0.4,0.1-0.8,0.3-1.1,0.6L43,13.3
	c0.5,0.3,1.1,0.5,1.7,0.6c0.3,0.1,0.6,0.1,0.9,0.1c0.3-0.1,0.6-0.2,0.8-0.4c0.3-0.2,0.5-0.5,0.7-0.8C47.3,12.3,47.5,11.8,47.6,11.4
	L47.6,11.4z"/>
<path class="st0" d="M58.5,21.9l-0.6,0.9l-2.2-1.5c-0.2-0.1-0.3-0.4-0.2-0.7l0.3-0.7c-0.3,0-0.5,0.1-0.8,0.1c-0.3,0-0.5,0-0.8,0
	c-0.3,0-0.5-0.1-0.8-0.2c-0.3-0.1-0.5-0.2-0.8-0.4c-0.4-0.3-0.7-0.6-1-1c-0.2-0.4-0.3-0.7-0.4-1.2c0-0.4,0-0.8,0.1-1.2
	c0.2-0.5,0.4-0.9,0.7-1.3l2.3-3.3l-0.7-0.7c-0.2-0.2-0.2-0.5,0-0.7L54.4,9l2.9,2.1L54,15.9c-0.3,0.4-0.4,0.8-0.4,1.3
	c0.1,0.4,0.3,0.8,0.7,1c0.3,0.2,0.6,0.4,1,0.4c0.4,0.1,0.8,0.1,1.2,0l2.8-4l-0.5-0.5L58.6,14c-0.2-0.2-0.2-0.5,0-0.7l0.6-0.9
	l2.9,2.1l-4.3,6.1l0.6,0.6C58.6,21.4,58.7,21.7,58.5,21.9z"/>
<path class="st0" d="M70.9,27.2c-0.2,0.2-0.5,0.1-0.7-0.1C70.1,27.1,70.1,27,70,27l-0.4-0.5l-10.7,2.1c-0.1,0-0.3,0-0.5,0
	c-0.1-0.1-0.3-0.2-0.3-0.3l-0.9-1.4l4-0.6l3.9-6.3l-0.2-0.6c0-0.1-0.1-0.1-0.1-0.2c-0.1-0.2,0-0.5,0.2-0.7l0.9-0.6l2.5,3.7l-0.9,0.6
	c-0.2,0.2-0.5,0.1-0.7-0.1l-0.3-0.3L64.4,25c-0.1,0.1-0.1,0.2-0.2,0.2l-0.1,0.2c0,0.1-0.2,0.2-0.3,0.4l0.5-0.1
	c0.2-0.1,0.3-0.1,0.5-0.1l3.6-0.8l-0.3-0.6c-0.1-0.2,0-0.6,0.2-0.7l0.9-0.6l2.5,3.7L70.9,27.2z"/>
<path class="st0" d="M2.6,67.8c-0.2,0.1-0.4,0.2-0.5,0.4c-0.1,0.1-0.2,0.3-0.2,0.5c0,0.2,0,0.3,0.1,0.4c0.1,0.1,0.2,0.2,0.3,0.3
	l0.4,0.3C2.7,69.9,2.9,70,3,70.1c0.1,0.1,0.3,0.2,0.4,0.4c0.4,0.5,0.5,1.1,0.2,1.7c-0.1,0.2-0.2,0.4-0.4,0.5
	c-0.2,0.1-0.4,0.3-0.5,0.3c-0.4,0.2-0.8,0.3-1.3,0.3c-0.3,0-0.5-0.1-0.8-0.2c-0.1-0.1-0.2-0.2-0.3-0.3c-0.1-0.1-0.1-0.3-0.1-0.4
	c0-0.1,0.1-0.3,0.2-0.4c0.1-0.1,0.3-0.1,0.4-0.2H1c0,0.1,0,0.2,0,0.3v0.2c0,0,0,0.1,0,0.1c0,0,0,0.1,0,0.1l0.1,0.1l0.1,0.1
	c0.1,0,0.3,0.1,0.4,0.1c0.1,0,0.3,0,0.4,0c0.1,0,0.2-0.1,0.4-0.1c0.1-0.1,0.2-0.1,0.3-0.2C2.9,72.4,3,72.2,3,71.9
	c0-0.3-0.2-0.6-0.4-0.8c-0.1-0.2-0.3-0.4-0.6-0.6S1.6,70,1.5,69.9c-0.2-0.2-0.3-0.5-0.4-0.8c0-0.2,0-0.4,0.1-0.6
	c0.1-0.2,0.2-0.3,0.4-0.5c0.2-0.1,0.3-0.3,0.5-0.3c0.4-0.2,0.8-0.3,1.2-0.3c0.3,0,0.5,0.1,0.8,0.2c0.1,0.1,0.2,0.2,0.3,0.3
	c0.1,0.2,0.1,0.3,0.1,0.5c-0.2,0.2-0.4,0.4-0.7,0.5c-0.3,0.2-0.6,0.3-0.9,0.5V69c0.1-0.1,0.2-0.1,0.3-0.2c0.4-0.2,0.6-0.3,0.6-0.4
	c0-0.5-0.2-0.7-0.7-0.7C3,67.7,2.8,67.7,2.6,67.8z"/>
<path class="st0" d="M4.8,70.1H4.6l0,0l0,0c0,0,0-0.1,0-0.1c0,0,0,0,0-0.1c0,0,0,0,0.1,0H5c0.1-0.4,0.2-0.6,0.2-0.7L5.3,69
	c0-0.1,0.1-0.1,0.1-0.2l0.1-0.1c0,0,0.1-0.1,0.2-0.1c0.1-0.1,0.3-0.1,0.4-0.1l0,0L6,68.6c-0.2,0.6-0.3,1-0.4,1.2h1.1l-0.1,0.1
	c-0.1,0.1-0.4,0.2-1,0.2c0,0,0,0.1-0.1,0.4c-0.1,0.5-0.3,0.9-0.3,1.4c0,0.2,0,0.3,0.1,0.3c0,0,0.1,0,0.1,0c0.5-0.3,1-0.7,1.3-1.1
	v0.4l-0.3,0.3L6,72.1l-0.3,0.2c-0.1,0.1-0.2,0.2-0.3,0.2c-0.2,0.1-0.4,0.2-0.6,0.2c-0.3,0-0.4-0.2-0.4-0.6c0-0.3,0-0.5,0.1-0.8
	c0.1-0.3,0.1-0.5,0.2-0.7S4.7,70.3,4.8,70.1z"/>
<path class="st0" d="M8.5,69.8c0,0.1,0,0.1-0.1,0.2c-0.4,0-0.8,0.1-1.1,0.4C7.1,70.5,7,70.8,7,71.2c0,0.3,0.1,0.5,0.2,0.8
	c0.1,0.2,0.3,0.3,0.5,0.3c0.2,0,0.4-0.1,0.6-0.3c-0.2-0.1-0.3-0.3-0.4-0.4c-0.1-0.2-0.1-0.4-0.1-0.6c0-0.2,0-0.3,0.2-0.4
	c0.1-0.1,0.3-0.2,0.5-0.2c0.2,0,0.3,0.1,0.5,0.2C9,70.6,9,70.7,9,70.9c0,0.3-0.1,0.7-0.3,0.9h0.1c0,0,0.1,0,0.1,0
	c0.1,0,0.1-0.1,0.2-0.1c0.1,0,0.1-0.1,0.1-0.2c0,0,0.1-0.1,0.2-0.2s0.1-0.2,0.2-0.2v0.4c-0.1,0.2-0.3,0.3-0.5,0.4
	C9.1,72,9,72.1,8.9,72.1c-0.1,0-0.2,0-0.3,0c-0.2,0.2-0.4,0.4-0.6,0.5c-0.2,0.1-0.5,0.2-0.8,0.2c-0.4,0-0.7-0.2-0.8-0.5
	c-0.1-0.2-0.1-0.4-0.1-0.7c0-0.5,0.2-1,0.6-1.3C7.3,69.9,7.8,69.7,8.5,69.8C8.5,69.7,8.5,69.7,8.5,69.8z M8.7,70.9
	c0-0.2-0.1-0.3-0.3-0.3s-0.3,0.1-0.3,0.3c0,0.1,0,0.3,0.1,0.4c0.1,0.1,0.1,0.2,0.3,0.3c0.1-0.1,0.1-0.2,0.1-0.3
	C8.7,71.2,8.7,71,8.7,70.9z"/>
<path class="st0" d="M11,70.1h0.4c0.1,0,0.1,0,0.1,0c-0.1,0.2-0.1,0.4-0.2,0.6c-0.2,0.4-0.4,0.9-0.6,1.3v0.1l0,0c0,0,0,0,0.1,0
	c0.1,0,0.2-0.1,0.6-0.4c0.2-0.2,0.4-0.4,0.6-0.7v0.4c-0.8,0.8-1.4,1.2-1.7,1.2c-0.1,0-0.2,0-0.2-0.1c0-0.1-0.1-0.2-0.1-0.3
	c0-0.1,0-0.2,0.1-0.3c0-0.1,0.1-0.3,0.1-0.4l0.2-0.4l0.2-0.4l0.1-0.2c-0.1,0.1-0.3,0.3-0.5,0.4s-0.3,0.3-0.5,0.5v-0.4l0.7-0.7
	c-0.2,0-0.4-0.1-0.6-0.3c0,0,0-0.1,0-0.1c0-0.2,0.1-0.3,0.2-0.4c0.1-0.1,0.3-0.2,0.5-0.2c0.1,0,0.1,0.1,0.1,0.2c0,0.1,0,0.2-0.1,0.2
	c0,0.1-0.1,0.1-0.1,0.2C10.6,70,10.8,70.1,11,70.1z"/>
<path class="st0" d="M14.6,71.1v0.4c-0.3,0.3-0.6,0.7-1,0.9c-0.2,0.2-0.5,0.3-0.8,0.3c-0.5,0-0.9-0.2-1-0.5
	c-0.1-0.2-0.1-0.3-0.1-0.5c0-0.3,0.1-0.7,0.2-1c0.1-0.3,0.4-0.6,0.6-0.8c0.3-0.2,0.6-0.3,0.9-0.3c0.6,0,0.8,0.2,0.8,0.6
	c0,0.3-0.1,0.5-0.3,0.7c-0.2,0.2-0.5,0.3-0.7,0.3c-0.1,0-0.2,0-0.3-0.1c-0.1-0.1-0.2-0.2-0.3-0.3c-0.1,0.2-0.1,0.4-0.1,0.6
	c0,0.5,0.2,0.8,0.6,0.8c0.1,0,0.3-0.1,0.4-0.2c0.1-0.1,0.3-0.2,0.4-0.3l0.4-0.4C14.4,71.3,14.5,71.2,14.6,71.1z M12.7,70.7
	c0.1,0.2,0.3,0.3,0.6,0.3c0.1,0,0.3-0.1,0.4-0.2c0.1-0.1,0.1-0.3,0.1-0.4c0-0.1,0-0.2-0.1-0.3C13.6,70,13.5,70,13.4,70
	c-0.1,0-0.2,0-0.3,0.1c-0.1,0-0.2,0.1-0.2,0.2C12.8,70.4,12.7,70.5,12.7,70.7z"/>
<path class="st0" d="M17.9,69.8c0,0.1,0,0.1-0.1,0.2c-0.4,0-0.8,0.1-1.1,0.4c-0.2,0.2-0.3,0.5-0.4,0.8c0,0.3,0.1,0.5,0.2,0.8
	c0.1,0.2,0.3,0.3,0.5,0.3c0.2,0,0.4-0.1,0.6-0.3c-0.2-0.1-0.3-0.3-0.4-0.4c-0.1-0.2-0.1-0.4-0.1-0.6c0-0.2,0-0.3,0.2-0.4
	c0.1-0.1,0.3-0.2,0.5-0.2c0.2,0,0.3,0.1,0.5,0.2c0.1,0.1,0.2,0.3,0.1,0.4c0,0.3-0.1,0.7-0.3,0.9h0.1c0,0,0.1,0,0.1,0
	c0.1,0,0.1-0.1,0.2-0.1c0.1,0,0.1-0.1,0.1-0.2c0,0,0.1-0.1,0.2-0.2s0.1-0.2,0.2-0.2v0.4c-0.1,0.2-0.3,0.3-0.5,0.4
	c-0.1,0.1-0.2,0.1-0.4,0.1c-0.1,0-0.2,0-0.3-0.1c-0.2,0.2-0.4,0.4-0.6,0.5c-0.2,0.1-0.5,0.2-0.8,0.2c-0.4,0-0.7-0.2-0.8-0.5
	c-0.1-0.2-0.1-0.4-0.1-0.7c0-0.5,0.2-1,0.6-1.3C16.7,69.8,17.3,69.7,17.9,69.8C17.9,69.7,17.9,69.7,17.9,69.8z M18.1,70.9
	c0-0.2-0.1-0.3-0.3-0.3s-0.3,0.1-0.3,0.3c0,0.1,0,0.3,0.1,0.4c0.1,0.1,0.1,0.2,0.3,0.3c0.1-0.1,0.1-0.2,0.1-0.3
	C18.1,71.2,18.1,71,18.1,70.9z"/>
<path class="st0" d="M20.8,71.1v0.4c-0.4,0.5-0.8,0.7-1,0.7c-0.2,0-0.3-0.1-0.4-0.2c0,0,0,0.3-0.2,0.9s-0.2,0.9-0.2,1h-0.6
	c0.1-0.7,0.3-1.6,0.5-2.6s0.5-2,0.7-2.8c0.1-0.3,0.3-0.5,0.5-0.7c0.2-0.2,0.5-0.3,0.9-0.3c0.2,0,0.3,0.1,0.3,0.4c0,0,0,0.1,0,0.1
	c0,0.3-0.1,0.6-0.2,0.9c-0.1,0.3-0.3,0.6-0.5,0.8c-0.2,0.2-0.4,0.5-0.5,0.7L19.7,71c-0.1,0.1-0.2,0.2-0.2,0.4c0,0.1,0,0.2,0.1,0.3
	c0.1,0.1,0.1,0.1,0.2,0.1c0.1,0,0.2-0.1,0.4-0.3C20.5,71.4,20.6,71.3,20.8,71.1z M20.6,67.9c-0.1,0-0.2,0.1-0.3,0.3
	c-0.1,0.2-0.2,0.4-0.2,0.7L20,69.3c0,0.1-0.1,0.3-0.1,0.4c-0.1,0.5-0.1,0.7-0.1,0.7c0,0,0,0,0,0.1l0,0l0.3-0.4
	c0.1-0.2,0.2-0.4,0.3-0.5c0.1-0.1,0.2-0.3,0.3-0.5c0.2-0.3,0.3-0.6,0.3-0.9C20.9,68,20.8,67.9,20.6,67.9z"/>
<path class="st0" d="M23.8,67.5l-0.9,3.3c0.2-0.3,0.4-0.6,0.7-0.8c0.2-0.2,0.5-0.3,0.8-0.3c0.2,0,0.4,0.1,0.4,0.4
	c0,0.3-0.1,0.5-0.2,0.8c-0.1,0.3-0.2,0.6-0.2,0.9c0,0.1,0,0.1,0.1,0.1c0.2-0.1,0.3-0.2,0.4-0.4c0.2-0.2,0.4-0.4,0.5-0.5v0.4
	c-0.7,0.8-1.2,1.3-1.5,1.3s-0.2-0.1-0.2-0.3c0,0,0-0.1,0-0.1c0-0.1,0.1-0.3,0.1-0.4c0.2-0.4,0.3-0.9,0.3-1.4c0-0.1-0.1-0.2-0.2-0.2
	s-0.4,0.2-0.6,0.4c-0.2,0.3-0.4,0.6-0.5,0.9c-0.1,0.2-0.1,0.4-0.2,0.7c0,0.1-0.1,0.2-0.2,0.3h-0.5c0-0.3,0.3-1.4,0.8-3.3l0.3-0.9
	c0.1-0.3,0.2-0.5,0.3-0.8c0.1-0.1,0.1-0.1,0.2-0.1h0.3C23.7,67.5,23.7,67.5,23.8,67.5z"/>
<path class="st0" d="M27.2,69.8c0,0.1,0,0.1-0.1,0.2c-0.4,0-0.8,0.1-1.1,0.4c-0.2,0.2-0.3,0.5-0.4,0.8c0,0.3,0.1,0.5,0.2,0.8
	c0.1,0.2,0.3,0.3,0.5,0.3c0.2,0,0.4-0.1,0.6-0.3c-0.2-0.1-0.3-0.3-0.4-0.4c-0.1-0.2-0.1-0.4-0.1-0.6c0-0.2,0.1-0.3,0.2-0.4
	c0.1-0.1,0.3-0.2,0.5-0.2c0.2,0,0.3,0.1,0.5,0.2c0.1,0.1,0.2,0.3,0.1,0.4c0,0.3-0.1,0.7-0.3,0.9h0.1c0,0,0.1,0,0.1,0
	c0.1,0,0.1-0.1,0.2-0.1l0.2-0.2l0.2-0.2c0.1-0.1,0.1-0.2,0.2-0.2v0.4c-0.1,0.2-0.3,0.3-0.5,0.4c-0.1,0.1-0.2,0.1-0.4,0.1
	c-0.1,0-0.2,0-0.3,0c-0.2,0.2-0.4,0.4-0.6,0.5c-0.2,0.1-0.5,0.2-0.8,0.2c-0.4,0-0.7-0.2-0.8-0.5c-0.1-0.2-0.1-0.4-0.1-0.7
	c0-0.5,0.2-1,0.6-1.3C26,69.9,26.5,69.7,27.2,69.8C27.1,69.8,27.2,69.7,27.2,69.8z M27.4,70.9c0-0.2-0.1-0.3-0.3-0.3
	s-0.3,0.1-0.3,0.3c0,0.1,0,0.3,0.1,0.4c0.1,0.1,0.1,0.2,0.3,0.3c0.1-0.1,0.1-0.2,0.1-0.3C27.4,71.2,27.4,71,27.4,70.9z"/>
<path class="st0" d="M31.6,72.8c-0.1,0-0.2-0.1-0.2-0.3c0-0.3,0.1-0.7,0.2-0.9c0.1-0.3,0.2-0.6,0.2-0.9c0-0.1,0-0.1-0.1-0.2
	c-0.1-0.1-0.1-0.1-0.2-0.1c-0.1,0-0.2,0.1-0.3,0.2c-0.1,0.1-0.2,0.3-0.3,0.5c-0.1,0.2-0.2,0.4-0.3,0.6s-0.3,0.7-0.4,1h-0.7
	c0-0.5,0.1-0.9,0.3-1.4c0.1-0.2,0.1-0.4,0.2-0.7c0-0.1,0-0.1,0-0.2c0,0-0.1-0.1-0.1-0.1h-0.1c-0.2,0.1-0.3,0.2-0.5,0.4
	c-0.1,0.2-0.3,0.4-0.4,0.7c-0.2,0.4-0.3,0.8-0.4,1.2h-0.7c0-0.5,0.1-1,0.2-1.4c0.1-0.4,0.2-0.8,0.4-1.2c0-0.1,0.1-0.1,0.2-0.2
	c0.2,0,0.3,0,0.5,0c-0.1,0.2-0.1,0.5-0.2,0.7l-0.2,0.6c0.5-0.9,1.1-1.4,1.6-1.4c0.1,0,0.1,0.1,0.2,0.2c0,0.1,0.1,0.3,0.1,0.4
	c0,0.3-0.1,0.6-0.2,0.8c0.2-0.3,0.4-0.6,0.7-0.9c0.1-0.1,0.3-0.3,0.5-0.3c0.1-0.1,0.3-0.1,0.5-0.1c0.3,0,0.4,0.2,0.4,0.5
	c0,0.4-0.1,0.9-0.3,1.3c0,0.1-0.1,0.2-0.1,0.3c0,0.1,0,0.1,0,0.1h0.1l0.1-0.1l0.1-0.1c0,0,0.1-0.1,0.1-0.1l0.2-0.2l0.2-0.2l0.2-0.2
	v0.4c-0.3,0.3-0.6,0.6-0.9,0.8C32,72.6,31.8,72.7,31.6,72.8z"/>
<path class="st0" d="M35.7,71.1v0.4c-0.3,0.3-0.6,0.7-1,0.9c-0.2,0.2-0.5,0.3-0.8,0.3c-0.5,0-0.9-0.2-1-0.5
	c-0.1-0.2-0.1-0.3-0.1-0.5c0-0.3,0.1-0.7,0.2-1c0.1-0.3,0.4-0.6,0.6-0.8c0.3-0.2,0.6-0.3,0.9-0.3c0.5,0,0.8,0.2,0.8,0.6
	c0,0.3-0.1,0.5-0.3,0.7c-0.2,0.2-0.5,0.3-0.7,0.3c-0.1,0-0.2,0-0.3-0.1c-0.1-0.1-0.2-0.2-0.3-0.3c-0.1,0.2-0.1,0.4-0.2,0.6
	c0,0.5,0.2,0.8,0.6,0.8c0.1,0,0.3-0.1,0.4-0.2c0.1-0.1,0.3-0.2,0.4-0.3l0.4-0.4L35.7,71.1z M33.8,70.7c0.1,0.2,0.3,0.3,0.6,0.3
	c0.1,0,0.3-0.1,0.3-0.2c0.1-0.1,0.1-0.3,0.2-0.4c0-0.2,0-0.2-0.1-0.3C34.7,70,34.6,70,34.5,70c-0.1,0-0.2,0-0.3,0.1
	c-0.1,0-0.2,0.1-0.2,0.2C33.9,70.4,33.8,70.5,33.8,70.7z"/>
<path class="st0" d="M38.9,72.8c-0.1,0-0.2-0.1-0.2-0.3c0-0.3,0.1-0.7,0.2-0.9c0.1-0.3,0.2-0.6,0.2-0.9c0-0.1,0-0.1-0.1-0.2
	c-0.1-0.1-0.1-0.1-0.2-0.1c-0.1,0-0.2,0.1-0.3,0.2c-0.1,0.1-0.2,0.3-0.3,0.5c-0.1,0.2-0.2,0.4-0.3,0.6c-0.1,0.3-0.3,0.7-0.3,1h-0.7
	c0-0.5,0.1-0.9,0.3-1.4c0.1-0.2,0.1-0.4,0.2-0.7c0-0.1,0-0.1,0-0.2c0,0-0.1-0.1-0.1-0.1h-0.1c-0.2,0.1-0.3,0.2-0.5,0.4
	c-0.2,0.2-0.3,0.4-0.4,0.7c-0.2,0.4-0.3,0.8-0.4,1.2h-0.7c0-0.5,0.1-1,0.2-1.4c0.1-0.4,0.2-0.8,0.3-1.2c0-0.1,0.1-0.1,0.2-0.2
	c0.2,0,0.3,0,0.5,0c-0.1,0.2-0.1,0.5-0.2,0.7l-0.2,0.6c0.5-0.9,1.1-1.4,1.6-1.4c0.1,0,0.2,0.1,0.2,0.2c0,0.1,0.1,0.3,0.1,0.4
	c0,0.3-0.1,0.6-0.2,0.8c0.2-0.3,0.4-0.6,0.7-0.9c0.1-0.1,0.3-0.3,0.5-0.3c0.1-0.1,0.3-0.1,0.5-0.1c0.3,0,0.4,0.2,0.4,0.5
	c0,0.4-0.1,0.9-0.3,1.3c0,0.1-0.1,0.2-0.1,0.3c0,0.1,0,0.1,0,0.1h0.1l0.1-0.1l0.1-0.1l0.1-0.1l0.2-0.2l0.2-0.2l0.2-0.2v0.4
	c-0.3,0.3-0.6,0.6-0.9,0.8C39.3,72.6,39.1,72.7,38.9,72.8z"/>
<path class="st0" d="M40.5,72.8c-0.3,0-0.5-0.2-0.5-0.6c0-0.1,0-0.2,0-0.3c0-0.3,0.1-0.5,0.2-0.8c0.1-0.3,0.3-0.5,0.5-0.7
	c0.2-0.2,0.5-0.4,0.7-0.5c0.3-0.1,0.6-0.2,0.9-0.2c0.2,0,0.4,0,0.6,0.1c0,0,0,0.1-0.1,0.3s-0.1,0.4-0.1,0.6c-0.1,0.3-0.2,0.7-0.2,1
	c0,0.1,0,0.2,0.1,0.2s0.5-0.3,1.1-0.9v0.4c-0.3,0.3-0.6,0.6-1,0.9c-0.2,0.2-0.4,0.3-0.7,0.3c-0.2,0-0.3-0.2-0.3-0.5
	c0-0.1,0-0.2,0-0.3c-0.2,0.2-0.4,0.4-0.6,0.6C41,72.6,40.8,72.7,40.5,72.8z M40.8,71.7c0,0.3,0.1,0.5,0.3,0.5c0.1,0,0.3-0.1,0.4-0.2
	c0.1-0.1,0.3-0.2,0.4-0.3l0.4-1.7c-0.3,0-0.5,0.1-0.7,0.3c-0.2,0.2-0.4,0.4-0.6,0.7C40.8,71.1,40.8,71.4,40.8,71.7z"/>
<path class="st0" d="M44.4,72.5c-0.2,0.1-0.4,0.2-0.6,0.2c-0.1,0-0.2,0-0.3-0.1c-0.1-0.1-0.1-0.1-0.2-0.2c-0.1-0.2-0.1-0.4-0.1-0.5
	c0-0.3,0.1-0.5,0.2-0.7c0.1-0.3,0.3-0.5,0.4-0.8c0.2-0.2,0.4-0.4,0.6-0.6c0.2-0.1,0.4-0.2,0.6-0.2c0.2,0,0.3,0,0.5,0.1l0.5-1.7
	c0-0.2,0.1-0.3,0.2-0.5c0.1-0.1,0.2-0.1,0.3-0.1H47c0,0.2-0.1,0.3-0.1,0.5c-0.1,0.4-0.3,1.1-0.6,2c-0.2,0.5-0.3,1.1-0.4,1.7
	c0,0.1,0,0.1,0,0.2c0,0,0,0.1,0,0.1c0,0,0.1,0,0.1,0c0,0,0.2-0.1,0.3-0.2s0.3-0.3,0.6-0.7v0.4l-0.2,0.2l-0.2,0.2l-0.2,0.2l-0.2,0.2
	L46,72.5l-0.2,0.2l-0.2,0.1c-0.1,0.1-0.2,0.1-0.3,0.1c-0.2,0-0.3-0.2-0.3-0.5c0-0.2,0-0.3,0.1-0.5C45,72.1,44.7,72.3,44.4,72.5z
	 M45.6,70.1c0,0,0-0.1-0.1-0.1c-0.1,0-0.1,0-0.2,0c-0.2,0-0.4,0.1-0.6,0.3c-0.2,0.2-0.3,0.4-0.5,0.7c-0.1,0.2-0.2,0.5-0.2,0.8
	c0,0.3,0.1,0.4,0.3,0.4c0.2,0,0.4-0.1,0.6-0.3c0.2-0.2,0.3-0.3,0.4-0.4L45.6,70.1z"/>
<path class="st0" d="M49.5,71.1v0.4c-0.3,0.3-0.6,0.7-1,0.9c-0.2,0.2-0.5,0.3-0.8,0.3c-0.5,0-0.9-0.2-1-0.5
	c-0.1-0.2-0.1-0.3-0.1-0.5c0-0.3,0.1-0.7,0.2-1c0.1-0.3,0.4-0.6,0.6-0.8c0.3-0.2,0.6-0.3,0.9-0.3c0.5,0,0.8,0.2,0.8,0.6
	c0,0.3-0.1,0.5-0.3,0.7c-0.2,0.2-0.5,0.3-0.7,0.3c-0.1,0-0.2,0-0.3-0.1c-0.1-0.1-0.2-0.2-0.3-0.3c-0.1,0.2-0.1,0.4-0.2,0.6
	c0,0.5,0.2,0.8,0.6,0.8c0.1,0,0.3-0.1,0.4-0.2c0.1-0.1,0.3-0.2,0.4-0.3l0.4-0.4C49.3,71.3,49.4,71.2,49.5,71.1z M47.5,70.7
	c0.1,0.2,0.3,0.3,0.6,0.3c0.1,0,0.3-0.1,0.3-0.2c0.1-0.1,0.1-0.3,0.2-0.4c0-0.1,0-0.2-0.1-0.3C48.5,70,48.4,70,48.3,70
	c-0.1,0-0.2,0-0.3,0.1c-0.1,0-0.2,0.1-0.2,0.2C47.7,70.4,47.6,70.5,47.5,70.7z"/>
<path class="st0" d="M52.5,67.5l-0.9,3.3c0.2-0.3,0.4-0.6,0.7-0.8c0.2-0.2,0.5-0.3,0.8-0.3c0.2,0,0.3,0.1,0.3,0.4
	c0,0.3-0.1,0.5-0.2,0.8c-0.1,0.3-0.2,0.6-0.2,0.9c0,0.1,0,0.1,0.1,0.1c0.2-0.1,0.3-0.2,0.4-0.4l0.5-0.5v0.4
	c-0.7,0.8-1.2,1.3-1.5,1.3s-0.2-0.1-0.2-0.3c0,0,0-0.1,0-0.1c0-0.1,0-0.2,0.1-0.4c0.2-0.4,0.3-0.9,0.3-1.4c0-0.1-0.1-0.2-0.2-0.2
	c0,0,0,0,0,0c-0.3,0-0.5,0.2-0.7,0.4c-0.2,0.3-0.4,0.6-0.5,0.9c-0.1,0.2-0.1,0.4-0.2,0.7c0,0.1-0.1,0.2-0.2,0.3h-0.5
	c0-0.3,0.3-1.4,0.8-3.3l0.3-0.9c0.1-0.3,0.2-0.5,0.3-0.8c0.1-0.1,0.1-0.1,0.2-0.1h0.3C52.4,67.5,52.5,67.5,52.5,67.5z"/>
<path class="st0" d="M54,72.8c-0.3,0-0.5-0.2-0.5-0.6c0-0.1,0-0.2,0-0.3c0-0.3,0.1-0.5,0.2-0.8c0.1-0.3,0.3-0.5,0.5-0.7
	c0.2-0.2,0.5-0.4,0.7-0.5c0.3-0.1,0.6-0.2,0.9-0.2c0.2,0,0.4,0,0.6,0.1c0,0.1,0,0.2-0.1,0.3c0,0.2-0.1,0.4-0.1,0.6
	c-0.1,0.3-0.1,0.7-0.2,1c0,0.1,0,0.2,0.1,0.2s0.5-0.3,1.1-0.9v0.4c-0.3,0.3-0.6,0.6-1,0.9c-0.2,0.2-0.4,0.3-0.7,0.3
	c-0.2,0-0.3-0.2-0.3-0.5c0-0.1,0-0.2,0-0.3c-0.2,0.2-0.4,0.4-0.6,0.6C54.5,72.6,54.3,72.7,54,72.8z M54.2,71.7
	c0,0.3,0.1,0.5,0.3,0.5c0.1,0,0.3-0.1,0.4-0.2c0.1-0.1,0.3-0.2,0.4-0.3l0.4-1.7c-0.3,0-0.5,0.1-0.7,0.3c-0.2,0.2-0.4,0.4-0.6,0.7
	C54.3,71.1,54.2,71.4,54.2,71.7L54.2,71.7z"/>
<path class="st0" d="M59.2,69.7c0.3,0,0.5,0.2,0.5,0.5c0,0.4-0.1,0.7-0.3,1.1c-0.1,0.3-0.4,0.6-0.7,0.8c0.4-0.1,0.7-0.2,1-0.5
	c0.2-0.2,0.4-0.4,0.7-0.6v0.4L60,71.7l-0.2,0.2c0,0-0.1,0.1-0.2,0.2l-0.2,0.2l-0.2,0.1L59,72.5l-0.2,0.1c-0.1,0-0.1,0.1-0.2,0.1
	c-0.1,0-0.3,0.1-0.4,0.1c-0.1,0-0.2,0-0.2-0.1c0,0,0-0.1,0-0.1c0-0.1,0-0.1,0-0.1c0,0,0,0,0-0.1l0,0l0-0.1v-0.1l0.1-0.1
	c0.2-0.2,0.4-0.5,0.5-0.8c0.1-0.2,0.2-0.5,0.2-0.7c0-0.2-0.1-0.3-0.2-0.3s-0.5,0.2-0.7,0.6c-0.2,0.4-0.4,0.9-0.5,1.4l-0.1,0.3
	c0,0.1-0.2,0.6-0.3,1.4h-0.6c0.1-0.3,0.2-0.8,0.3-1.2s0.2-1,0.3-1.4c0.1-0.4,0.2-0.8,0.4-1.2c0-0.1,0.1-0.2,0.2-0.2
	c0.1,0,0.2-0.1,0.3-0.1H58c-0.1,0.4-0.2,0.8-0.4,1.3c0.2-0.3,0.4-0.6,0.6-0.9c0.1-0.1,0.3-0.3,0.5-0.4C58.8,69.8,59,69.7,59.2,69.7z
	"/>
<path class="st0" d="M62.1,69.7c0.3,0,0.5,0.2,0.5,0.5c0,0.4-0.1,0.7-0.3,1.1c-0.2,0.3-0.4,0.6-0.7,0.8c0.4-0.1,0.7-0.2,0.9-0.5
	c0.2-0.2,0.4-0.4,0.7-0.6v0.4l-0.2,0.2l-0.2,0.2l-0.2,0.2l-0.2,0.2l-0.2,0.1l-0.2,0.1l-0.2,0.1c-0.1,0-0.1,0.1-0.2,0.1
	c-0.1,0-0.3,0.1-0.4,0.1c-0.1,0-0.1,0-0.2-0.1c0,0,0-0.1,0-0.1c0,0,0-0.1,0-0.1c0,0,0,0,0-0.1l0,0v-0.1l0.1-0.1l0.1-0.1
	c0.2-0.2,0.4-0.5,0.5-0.8c0.1-0.2,0.2-0.5,0.2-0.7c0-0.2-0.1-0.3-0.2-0.3S61,70.6,60.8,71c-0.2,0.4-0.4,0.9-0.5,1.4l-0.1,0.3
	c0,0.1-0.2,0.6-0.3,1.4h-0.6c0.1-0.3,0.2-0.8,0.3-1.2s0.2-1,0.3-1.4c0.1-0.4,0.2-0.8,0.4-1.2c0-0.1,0.1-0.2,0.2-0.2
	c0.1,0,0.2-0.1,0.3-0.1h0.2c-0.1,0.4-0.2,0.8-0.4,1.3c0.2-0.3,0.4-0.6,0.6-0.9c0.1-0.1,0.3-0.3,0.5-0.4
	C61.7,69.8,61.9,69.7,62.1,69.7z"/>
<path class="st0" d="M63.4,72c0,0.2,0,0.2,0.1,0.2s0.2-0.1,0.5-0.4c0.3-0.3,0.5-0.5,0.7-0.7v0.4c-0.5,0.5-0.8,0.8-0.9,0.9
	c-0.2,0.2-0.5,0.3-0.7,0.4c-0.1,0-0.2-0.1-0.2-0.1c-0.1-0.1-0.1-0.2-0.1-0.3c0-0.3,0.1-0.7,0.2-1c0.1-0.5,0.2-0.9,0.3-1
	c0-0.1,0.1-0.2,0.1-0.2c0,0,0.1-0.1,0.1-0.1l0.1-0.1c0,0,0.1,0,0.2,0H64C63.7,70.6,63.6,71.3,63.4,72z M64,68.9
	c-0.1,0-0.2-0.1-0.2-0.2c0,0,0,0,0-0.1c0-0.1,0-0.2,0.1-0.3c0.1-0.1,0.2-0.2,0.3-0.2c0.1,0,0.2,0,0.3,0.1c0.1,0.1,0.1,0.1,0.1,0.2
	c0,0.1-0.1,0.2-0.2,0.3C64.3,68.9,64.1,68.9,64,68.9L64,68.9z"/>
<path class="st0" d="M67.6,71.1v0.4c-0.3,0.3-0.6,0.6-1,0.9c-0.2,0.2-0.4,0.3-0.6,0.3c-0.2,0-0.3-0.1-0.3-0.3c0-0.2,0.1-0.5,0.1-0.7
	c0.1-0.3,0.2-0.5,0.3-0.7c0.1-0.1,0.1-0.3,0.1-0.4c0-0.1,0-0.1,0-0.2c0,0-0.1,0-0.1,0c-0.2,0-0.3,0.1-0.4,0.3
	c-0.2,0.2-0.3,0.4-0.4,0.7c-0.2,0.4-0.4,0.9-0.5,1.3h-0.7c0-0.4,0.1-0.8,0.2-1.3c0.1-0.4,0.2-0.9,0.4-1.3c0-0.1,0.1-0.2,0.2-0.2
	c0.1,0,0.2-0.1,0.3-0.1h0.2c-0.2,0.6-0.3,1-0.4,1.3c0.2-0.3,0.4-0.6,0.7-0.9c0.1-0.1,0.3-0.3,0.5-0.4c0.1-0.1,0.3-0.1,0.5-0.1
	c0.2,0,0.3,0.1,0.3,0.4c-0.1,0.3-0.1,0.6-0.2,0.9c-0.1,0.3-0.2,0.5-0.2,0.8c0,0,0,0.1,0.1,0.1c0,0,0.1,0,0.1,0
	c0.1-0.1,0.3-0.2,0.4-0.4L67.6,71.1z"/>
<path class="st0" d="M70.2,71.1v0.4c-0.3,0.3-0.6,0.7-1,0.9c-0.2,0.2-0.5,0.3-0.8,0.3c-0.5,0-0.9-0.2-1-0.5
	c-0.1-0.2-0.1-0.3-0.1-0.5c0-0.3,0.1-0.7,0.2-1c0.1-0.3,0.4-0.6,0.6-0.8c0.3-0.2,0.6-0.3,0.9-0.3c0.6,0,0.8,0.2,0.8,0.6
	c0,0.3-0.1,0.5-0.3,0.7c-0.2,0.2-0.5,0.3-0.7,0.3c-0.1,0-0.2,0-0.3-0.1c-0.1-0.1-0.2-0.2-0.3-0.3c-0.1,0.2-0.1,0.4-0.2,0.6
	c0,0.5,0.2,0.8,0.6,0.8c0.1,0,0.3-0.1,0.4-0.2c0.1-0.1,0.3-0.2,0.4-0.3l0.4-0.4L70.2,71.1z M68.3,70.7c0.1,0.2,0.3,0.3,0.6,0.3
	c0.1,0,0.3-0.1,0.3-0.2c0.1-0.1,0.1-0.3,0.2-0.4c0-0.1,0-0.2-0.1-0.3C69.2,70,69.1,70,69,70c-0.1,0-0.2,0-0.3,0.1
	c-0.1,0-0.2,0.1-0.2,0.2C68.4,70.4,68.3,70.5,68.3,70.7z"/>
<path class="st0" d="M71,72.6c-0.1,0-0.2,0.1-0.3,0.1c-0.1,0-0.2,0-0.3,0c-0.1,0-0.2,0-0.3,0c-0.1,0-0.2,0-0.3-0.1
	c-0.2-0.1-0.3-0.3-0.3-0.5c0-0.1,0-0.2,0.1-0.3c0.1-0.1,0.1-0.2,0.2-0.3l0.3-0.3c0.1-0.1,0.1-0.1,0.2-0.2c-0.1-0.2-0.1-0.3-0.1-0.5
	c0-0.2,0.1-0.5,0.2-0.7c0.2-0.2,0.5-0.3,0.8-0.3c0.2,0,0.2,0,0.2,0.1c0,0.1-0.1,0.3-0.2,0.3c-0.1,0.1-0.3,0.1-0.4,0.1
	c0.1,0.2,0.2,0.5,0.4,0.7l0.2,0.2c0.1,0.1,0.2,0.2,0.2,0.4c0,0.2-0.1,0.4-0.2,0.6l1-0.9v0.4l-0.2,0.2L72,71.9l-0.2,0.2l-0.3,0.2
	l-0.3,0.2C71.2,72.5,71.1,72.6,71,72.6z M70.5,71.3l-0.2,0.2c-0.3,0.2-0.4,0.4-0.4,0.6c0,0.1,0.1,0.3,0.2,0.3
	c0.1,0.1,0.3,0.1,0.4,0.1c0.1,0,0.3,0,0.4-0.1c0.1,0,0.1-0.1,0.1-0.2c0-0.1,0-0.1,0-0.2c0-0.1-0.1-0.1-0.1-0.2
	c0-0.1-0.1-0.1-0.1-0.2l-0.2-0.2L70.5,71.3z"/>
<path class="st0" d="M73.2,72.6c-0.1,0-0.2,0.1-0.3,0.1c-0.1,0-0.2,0-0.3,0c-0.1,0-0.2,0-0.3,0c-0.1,0-0.2,0-0.3-0.1
	c-0.2-0.1-0.4-0.3-0.3-0.5c0-0.1,0-0.2,0.1-0.3c0.1-0.1,0.1-0.2,0.2-0.3l0.3-0.3c0.1-0.1,0.2-0.2,0.2-0.2c-0.1-0.2-0.1-0.3-0.1-0.5
	c0-0.2,0.1-0.5,0.2-0.7c0.2-0.2,0.5-0.3,0.8-0.3c0.2,0,0.2,0,0.2,0.1c0,0.1-0.1,0.3-0.2,0.3c-0.1,0.1-0.3,0.1-0.4,0.1
	c0.1,0.2,0.2,0.5,0.4,0.7l0.2,0.2c0.1,0.1,0.2,0.2,0.2,0.4c0,0.2-0.1,0.4-0.2,0.6l1-0.9v0.4l-0.2,0.2l-0.2,0.2L74,72.1l-0.3,0.2
	l-0.3,0.2C73.4,72.5,73.3,72.6,73.2,72.6z M72.7,71.3l-0.2,0.2c-0.3,0.2-0.4,0.4-0.4,0.6c0,0.1,0.1,0.3,0.2,0.3
	c0.1,0.1,0.3,0.1,0.4,0.1c0.1,0,0.3,0,0.4-0.1c0.1,0,0.1-0.1,0.1-0.2c0-0.1,0-0.1,0-0.2c0-0.1-0.1-0.1-0.1-0.2L73,71.6
	c-0.1-0.1-0.1-0.1-0.2-0.2L72.7,71.3z"/>
<path class="st0" d="M24.4,52.8c-0.1-0.6-0.2-1.2-0.2-1.8v-5.2c0.1-1,0.7-1.8,1.5-2.2c0.1,0,0.2,0,0.4,0V33.5c0-0.7-0.2-1.3-0.4-1.9
	h-0.2l-2.2,1.3l-0.2,2.1c-0.8,4-2.6,12.1-3.4,16.1c-0.3,1.1-0.4,2.3-0.2,3.4c0.2,0.8,0.5,1.5,1,2.2l2.7,3.8l4.6-1.3l-2.7-4.3
	C24.8,54.1,24.6,53.5,24.4,52.8z"/>
<path class="st0" d="M33.7,58c-1.2-1.9-2.2-3.5-2.9-4.5c-1.9-2.8-2.4-3.1-2.6-4.3c-0.4-1.8,0.3-2.8-0.6-4.1c-0.3-0.4-0.7-0.8-1.1-1
	c0,0.2-0.1,0.3-0.3,0.4c-0.6,0.3-0.9,0.8-1,1.4V51c0,0.5,0,1,0.1,1.5c0.1,0.6,0.4,1.2,0.7,1.7l2.7,4.4c0,0.1,0.1,0.1,0.1,0.2l1-0.3
	L33.7,58z"/>
<path class="st0" d="M26.4,44c0-0.1,0-0.1,0-0.2c0-0.1-0.1-0.2-0.2-0.2v0.3L26.4,44z"/>
<path class="st0" d="M27.9,59.1c0.1,0.1,0.2,0.2,0.4,0.2c0.1,0,0.2,0,0.2-0.1c0.2-0.1,0.2-0.3,0.2-0.5L27.9,59.1L27.9,59.1z"/>
<path class="st0" d="M48.4,52.8c0.1-0.6,0.2-1.2,0.2-1.8v-5.2c-0.1-1-0.7-1.8-1.5-2.2c-0.1,0-0.2,0-0.3,0V33.5
	c0-0.7,0.2-1.3,0.4-1.9h0.2l2.2,1.3l0.2,2.1c0.8,4,2.6,12.1,3.4,16.1c0.3,1.1,0.4,2.3,0.2,3.4c-0.2,0.8-0.5,1.5-1,2.2l-2.7,3.8
	L44.9,59l2.7-4.3C48,54.1,48.2,53.4,48.4,52.8z"/>
<path class="st0" d="M39.1,58c1.2-2,2.2-3.5,2.9-4.5c1.9-2.8,2.4-3.1,2.7-4.3c0.4-1.8-0.3-2.8,0.6-4.1c0.3-0.4,0.7-0.8,1.1-1
	c0,0.2,0.1,0.3,0.3,0.4c0.6,0.3,0.9,0.8,1,1.4V51c0,0.5,0,1-0.2,1.5c-0.1,0.6-0.4,1.1-0.7,1.7l-2.7,4.4c0,0-0.1,0.1-0.1,0.2l-1-0.3
	L39.1,58z"/>
<path class="st0" d="M46.4,44c0-0.1,0-0.1,0-0.2c0-0.1,0.1-0.2,0.2-0.2v0.3L46.4,44z"/>
<path class="st0" d="M44.9,59.1c-0.1,0.2-0.4,0.3-0.6,0.2c0,0,0,0,0,0C44.1,59.2,44,59,44,58.8L44.9,59.1L44.9,59.1z"/>
<path class="st0" d="M22.1,61.1c-0.1,0-0.3-0.1-0.4-0.2l-2.9-4.1c-0.5-0.7-0.9-1.5-1.1-2.3c-0.2-1.2-0.1-2.5,0.2-3.6
	c0.4-2,1-5.4,1.7-8.7s1.3-6.7,1.7-8.7l0.2-2c0-0.1,0.1-0.3,0.2-0.4l2.3-1.3c0.1,0,0.2-0.1,0.3-0.1c2.3,0.2,2.4,3.6,2.4,3.8v10.1
	c0.5,0.3,1,0.7,1.3,1.2c0.5,0.8,0.7,1.7,0.6,2.6c0,0.6,0,1.1,0,1.7c0.2,0.9,0.7,1.7,1.3,2.3c0.3,0.5,0.8,1,1.3,1.8
	c1,1.5,2,3,2.9,4.5c0.1,0.1,0.1,0.3,0,0.4c-0.1,0.1-0.2,0.2-0.3,0.2l-4,0.6l-7.5,2L22.1,61.1z M22.4,31.7l-0.2,1.8l0,0
	c-0.4,2-1,5.4-1.7,8.7S19.2,49,18.8,51l0,0c-0.3,1-0.3,2.1-0.2,3.2c0.2,0.7,0.5,1.4,0.9,2l2.8,3.8l7.3-2h0.1l3.3-0.5
	c-0.8-1.3-1.7-2.6-2.5-3.9c-0.5-0.8-1-1.3-1.3-1.8c-0.7-0.8-1.2-1.7-1.4-2.7c-0.1-0.6-0.2-1.3-0.1-1.9c0.1-0.7-0.1-1.4-0.4-2
	c-0.3-0.4-0.7-0.7-1.2-0.9c-0.2-0.1-0.3-0.2-0.4-0.5V33.5c0-0.5-0.1-1-0.2-1.5c-0.2-0.8-0.6-1.3-1.1-1.4L22.4,31.7z"/>
<path class="st0" d="M17.5,36c0.3,0,0.5-0.1,0.8-0.2l18.2-12.4l18,12.4c0.7,0.4,1.5,0.2,1.9-0.5c0.4-0.6,0.2-1.4-0.3-1.8L37.2,20.6
	c-0.5-0.3-1.1-0.3-1.5,0l-19,12.9c-0.6,0.4-0.8,1.3-0.4,1.9c0,0,0,0,0,0C16.6,35.8,17,36,17.5,36z"/>
<path class="st0" d="M55.9,62.7l-0.6-0.3L55,62.1L54.7,62c-0.8-0.4-1.6-0.9-2.4-1.2L51,60.2l-1.3-0.5l-0.6-0.2l-0.7-0.2l-1.3-0.4
	c-3.5-1-7.2-1.5-10.8-1.5c-0.5,0-0.9,0-1.4,0h-0.7h-0.3h-0.3l-0.7,0.1l-0.7,0.1l-1.4,0.2l-1.4,0.2l-0.7,0.1l-0.7,0.1
	c-0.9,0.2-1.8,0.4-2.6,0.7l-0.3,0.1l-0.3,0.1l-0.6,0.2l-0.3,0.1l-0.3,0.1l-0.6,0.2l-0.6,0.2l-0.6,0.2l-0.6,0.3l-0.6,0.3
	c-0.8,0.4-1.6,0.8-2.4,1.2c-0.8,0.4-1.6,0.9-2.3,1.5c1.7-0.7,3.3-1.3,5.1-1.8c0.4-0.1,0.9-0.2,1.3-0.4l1.3-0.3l0.6-0.2l0.3-0.1
	l0.3-0.1c0.4-0.1,0.9-0.2,1.3-0.3l0.6-0.1l0.3-0.1h0.3l0.6-0.1l0.3,0h0.3l1.3-0.2l1.3-0.2l1.3-0.1h0.7h0.7h0.7h0.7
	c0.4,0,0.9,0,1.3,0c3.5,0,7,0.3,10.4,1l1.3,0.3l0.6,0.1l0.6,0.2l1.3,0.3l1.3,0.4l0.6,0.2h0.2l0.2,0.1l0.3,0.1
	c0.4,0.1,0.8,0.3,1.3,0.4l0.3,0.1l0.3,0.1l0.6,0.2l1.3,0.5L55.9,62.7z"/>
<path class="st0" d="M32.2,32.5H35c0.3,0,0.5,0.2,0.5,0.5v2.9c0,0.3-0.2,0.5-0.5,0.5h-2.8c-0.3,0-0.5-0.2-0.5-0.5v-2.9
	C31.7,32.7,31.9,32.5,32.2,32.5z"/>
<path class="st0" d="M37.9,32.5h2.9c0.3,0,0.5,0.2,0.5,0.5v2.9c0,0.3-0.2,0.5-0.5,0.5h-2.9c-0.3,0-0.5-0.2-0.5-0.5v-2.9
	C37.4,32.7,37.6,32.5,37.9,32.5z"/>
<path class="st0" d="M32.2,38.2H35c0.3,0,0.5,0.2,0.5,0.5v2.9c0,0.3-0.2,0.5-0.5,0.5h-2.8c-0.3,0-0.5-0.2-0.5-0.5v-2.9
	C31.7,38.4,31.9,38.2,32.2,38.2z"/>
<path class="st0" d="M37.9,38.2h2.9c0.3,0,0.5,0.2,0.5,0.5v2.9c0,0.3-0.2,0.5-0.5,0.5h-2.9c-0.3,0-0.5-0.2-0.5-0.5v-2.9
	C37.4,38.4,37.6,38.2,37.9,38.2z"/>
<path class="st0" d="M27.4,59.3c-0.2,0-0.3-0.1-0.4-0.2l-2.7-4.4c-0.4-0.6-0.6-1.2-0.8-1.9c-0.1-0.6-0.2-1.2-0.1-1.8v-5.2
	c0.1-1.3,1.1-2.3,2.4-2.4l0,0c0.9,0.1,1.7,0.6,2.1,1.3c0.5,0.8,0.7,1.7,0.6,2.6c0,0.6,0,1.1,0.1,1.7c0.2,0.9,0.7,1.7,1.3,2.3
	c0.3,0.5,0.8,1,1.3,1.8c1,1.5,2,3,2.9,4.5c0.1,0.1,0.1,0.3,0,0.4c-0.1,0.1-0.2,0.2-0.3,0.2L27.4,59.3L27.4,59.3z M24.2,45.8V51
	c0,0.5,0,1,0.1,1.5c0.1,0.6,0.4,1.1,0.7,1.7l2.6,4.2l5.4-0.7c-0.8-1.3-1.7-2.6-2.5-3.9c-0.5-0.8-1-1.3-1.3-1.8
	c-0.7-0.8-1.2-1.7-1.4-2.7c-0.1-0.6-0.2-1.3-0.1-1.9c0.1-0.7-0.1-1.4-0.4-2c-0.1-0.1-0.7-1-1.4-1l0,0C24.9,44.3,24.3,45,24.2,45.8z"
	/>
<path class="st0" d="M50.7,61.1h-0.1L43,59l-4-0.6c-0.1,0-0.3-0.1-0.3-0.2c-0.1-0.1-0.1-0.3,0-0.4c0.9-1.6,1.9-3.1,2.9-4.5
	c0.5-0.8,1-1.4,1.3-1.8c0.6-0.7,1.1-1.5,1.3-2.4c0.1-0.6,0.1-1.2,0.1-1.7c-0.1-0.9,0.1-1.8,0.6-2.6c0.3-0.5,0.8-0.9,1.3-1.2V33.5
	c0-0.1,0.1-3.6,2.4-3.8c0.1,0,0.2,0,0.3,0.1l2.2,1.2c0.1,0.1,0.2,0.2,0.2,0.4l0.2,2c0.4,2,1,5.4,1.7,8.7s1.3,6.7,1.7,8.7
	c0.3,1.2,0.4,2.4,0.2,3.6c-0.2,0.9-0.5,1.7-1.1,2.4l-2.9,4.1C51,61,50.9,61.1,50.7,61.1z M39.8,57.6l3.3,0.5h0.1l7.3,2l2.8-3.8
	c0.4-0.6,0.7-1.3,0.9-2c0.2-1.1,0.1-2.2-0.2-3.2l0,0c-0.4-2-1-5.4-1.7-8.7s-1.3-6.7-1.7-8.7l0,0l-0.2-1.8l-1.9-1.1
	c-0.5,0.1-0.9,0.5-1.1,1.4c-0.1,0.5-0.2,1-0.2,1.5v10.3c0,0.2-0.1,0.4-0.3,0.5c-0.5,0.2-0.9,0.5-1.2,0.9c-0.4,0.6-0.5,1.3-0.4,2
	c0,0.6,0,1.3-0.1,1.9c-0.2,1-0.7,1.9-1.4,2.7c-0.3,0.5-0.8,1-1.3,1.8C41.5,55,40.7,56.3,39.8,57.6z"/>
<path class="st0" d="M45.4,59.3L45.4,59.3L39,58.4c-0.1,0-0.3-0.1-0.3-0.2c-0.1-0.1-0.1-0.3,0-0.4c0.9-1.6,1.9-3.1,2.9-4.5
	c0.5-0.8,1-1.4,1.3-1.8c0.6-0.7,1.1-1.5,1.3-2.4c0.1-0.6,0.1-1.2,0.1-1.7c-0.1-0.9,0.1-1.8,0.6-2.6c0.5-0.8,1.3-1.3,2.2-1.3
	c1.3,0.1,2.3,1.1,2.4,2.4l0,0V51c0,1.3-0.3,2.6-1,3.7l-2.7,4.4C45.7,59.2,45.6,59.3,45.4,59.3z M39.8,57.6l5.3,0.8l2.6-4.2
	c0.3-0.5,0.5-1.1,0.7-1.7c0.1-0.5,0.2-1,0.1-1.6v-5.2c0-0.8-0.7-1.5-1.5-1.5l0,0c-0.7,0-1.3,0.9-1.4,1c-0.4,0.6-0.5,1.3-0.4,2
	c0,0.6,0,1.3-0.1,1.9c-0.2,1-0.7,1.9-1.4,2.7c-0.3,0.5-0.8,1-1.3,1.8C41.5,55,40.7,56.3,39.8,57.6z"/>
</svg>
